{
    "name": "Hc",
    "alias": "hc",
    "description": "",
    "keywords": [],
    "active": 1,
    "order": 0,
    "providers": [
        "Modules\\Hc\\Providers\\HcServiceProvider"
    ],
    "aliases": {},
    "files": [],
    "requires": []
}
